\relax 
\@writefile{toc}{\contentsline {section}{\numberline {I}Introduction}{1}}
\@writefile{toc}{\contentsline {subsubsection}{\numberline {\unhbox \voidb@x \hbox {I-}1}Cross Correlation}{1}}
\@writefile{toc}{\contentsline {subsubsection}{\numberline {\unhbox \voidb@x \hbox {I-}2}Feature Based}{1}}
\@writefile{toc}{\contentsline {section}{\numberline {II}Related Work}{1}}
\@writefile{toc}{\contentsline {section}{\numberline {III}Feature Based Algorithm Approach on Single Machine}{1}}
\@writefile{lof}{\contentsline {figure}{\numberline {1}{\ignorespaces Results from experiments using SIFT on different resolutions of the same image}}{2}}
\newlabel{tab:awesome}{{1}{2}}
\@writefile{toc}{\contentsline {section}{\numberline {IV}Apache Spark Implementation}{2}}
\@writefile{toc}{\contentsline {section}{\numberline {V}General Purpose Graphics Processing Unit Implementation}{2}}
\@writefile{toc}{\contentsline {subsection}{\numberline {\unhbox \voidb@x \hbox {V-A}}GPU vs. CPU Convolution Benchmark}{3}}
\@writefile{lof}{\contentsline {figure}{\numberline {2}{\ignorespaces Results from experiments comparing GPU vs. CPU in Convolution of 2D image}}{3}}
\newlabel{tab:awesome}{{2}{3}}
\@writefile{toc}{\contentsline {subsection}{\numberline {\unhbox \voidb@x \hbox {V-B}}GPU Image Registration}{3}}
\bibcite{LandsatLaunch:Garner}{1}
\bibcite{LandsatHandbook:Landsat}{2}
\bibcite{true-color:Landsat}{3}
\bibcite{Hasan}{4}
\bibcite{Wang}{5}
\bibcite{Sarvaiya}{6}
\bibcite{ApacheSpark}{7}
\bibcite{Large-scale}{8}
\bibcite{Sanders}{9}
\@writefile{toc}{\contentsline {section}{\numberline {VI}Conclusion}{4}}
\@writefile{toc}{\contentsline {section}{References}{4}}
